<svg width="10" height="6" viewBox="0 0 10 6" fill="none" xmlns="http://www.w3.org/2000/svg">
<path fill-rule="evenodd" clip-rule="evenodd" d="M0.823223 0.823223C0.920854 0.725592 1.07915 0.725592 1.17678 0.823223L5 4.64645L8.82322 0.823223C8.92085 0.725592 9.07915 0.725592 9.17678 0.823223C9.27441 0.920854 9.27441 1.07915 9.17678 1.17678L5.17678 5.17678C5.07915 5.27441 4.92085 5.27441 4.82322 5.17678L0.823223 1.17678C0.725592 1.07915 0.725592 0.920854 0.823223 0.823223Z" fill="#03A9F4" stroke="#03A9F4" stroke-width="1.5" stroke-linecap="round" stroke-linejoin="round"/>
</svg>
