<svg width="32" height="32" viewBox="0 0 32 32" fill="none" xmlns="http://www.w3.org/2000/svg">
<path fill-rule="evenodd" clip-rule="evenodd" d="M16 32C24.8366 32 32 24.8366 32 16C32 7.16344 24.8366 0 16 0C7.16344 0 0 7.16344 0 16C0 24.8366 7.16344 32 16 32Z" fill="#F0F4F7"/>
<path fill-rule="evenodd" clip-rule="evenodd" d="M24.4695 8.87829H20.4926V8.19984C20.4926 6.98684 19.5495 6 18.3902 6H14.6098C13.4505 6 12.5074 6.98684 12.5074 8.19984V8.87829H8.53051C8.23578 8.87829 8 9.125 8 9.43339C8 9.74178 8.23578 9.98849 8.53051 9.98849H9.48937V23.0312C9.48937 24.6678 10.7626 26 12.3266 26H20.6734C22.2374 26 23.5106 24.6678 23.5106 23.0312V9.98849H24.4695C24.7642 9.98849 25 9.74178 25 9.43339C25 9.125 24.7642 8.87829 24.4695 8.87829ZM13.5682 8.19901C13.5682 7.59868 14.0359 7.10938 14.6096 7.10938H18.39C18.9637 7.10938 19.4314 7.59868 19.4314 8.19901V8.87747H13.5682V8.19901ZM20.6732 24.8896C21.6517 24.8896 22.4495 24.0549 22.4495 23.031H22.4534V9.98828H10.5503V23.031C10.5503 24.0549 11.348 24.8896 12.3265 24.8896H20.6732Z" fill="#263238"/>
<path d="M16.4976 22.6641C16.7913 22.6641 17.0264 22.4106 17.0264 22.0937V13.2345C17.0264 12.9176 16.7913 12.6641 16.4976 12.6641C16.2038 12.6641 15.9688 12.9176 15.9688 13.2345V22.0894C15.9688 22.4063 16.2038 22.6641 16.4976 22.6641Z" fill="#263238"/>
<path d="M12.7788 22.6641C13.0726 22.6641 13.3076 22.4097 13.3076 22.0918V13.2363C13.3076 12.9184 13.0726 12.6641 12.7788 12.6641C12.485 12.6641 12.25 12.9184 12.25 13.2363V22.0918C12.25 22.4097 12.4889 22.6641 12.7788 22.6641Z" fill="#263238"/>
<path d="M20.2163 22.6641C20.5101 22.6641 20.7451 22.4097 20.7451 22.0918V13.2363C20.7451 12.9184 20.5101 12.6641 20.2163 12.6641C19.9225 12.6641 19.6875 12.9184 19.6875 13.2363V22.0918C19.6875 22.4097 19.9225 22.6641 20.2163 22.6641Z" fill="#263238"/>
</svg>
